<?xml version="1.0" standalone="no"?>
<!DOCTYPE svg PUBLIC "-//W3C//DTD SVG 20010904//EN"
 "http://www.w3.org/TR/2001/REC-SVG-20010904/DTD/svg10.dtd">
<svg version="1.0" xmlns="http://www.w3.org/2000/svg"
 width="130.000000pt" height="130.000000pt" viewBox="0 0 130.000000 130.000000"
 preserveAspectRatio="xMidYMid meet">
<metadata>
Created by potrace 1.11, written by Peter Selinger 2001-2013
</metadata>
<g transform="translate(0.000000,130.000000) scale(0.100000,-0.100000)"
fill="#000000" stroke="none">
<path d="M1152 1283 c-15 -8 -149 -136 -298 -285 l-272 -270 -43 8 c-102 18
-179 -4 -257 -76 -24 -22 -60 -53 -80 -70 -28 -23 -34 -32 -24 -42 9 -9 17 -9
37 0 36 17 48 15 62 -7 11 -17 8 -22 -24 -41 -32 -19 -35 -23 -21 -36 14 -14
19 -14 46 0 17 9 37 16 45 16 16 0 237 -218 237 -233 0 -5 -9 -24 -19 -41 -11
-17 -27 -55 -36 -83 -15 -46 -20 -51 -35 -43 -25 13 -59 58 -66 86 -3 12 2 36
11 53 9 17 13 35 11 40 -10 16 -45 19 -72 5 -14 -8 -32 -14 -40 -14 -7 0 -66
52 -131 115 -94 92 -115 118 -103 125 8 5 22 10 31 10 18 0 29 18 22 37 -5 13
-25 11 -91 -9 -57 -17 -44 -41 101 -185 133 -133 167 -155 205 -134 19 10 20
9 11 -21 -13 -47 -15 -44 53 -114 81 -84 110 -85 123 -4 9 58 62 146 132 223
69 75 87 138 68 246 l-7 44 223 223 c205 206 222 225 207 240 -14 15 -29 3
-177 -145 -89 -89 -168 -161 -175 -161 -6 0 -27 15 -45 34 l-33 34 221 220
c234 235 246 243 281 191 22 -34 20 -45 -16 -86 -32 -35 -33 -39 -17 -51 16
-11 23 -8 56 27 51 55 52 103 2 151 -39 38 -63 43 -103 23z m-416 -547 c37
-38 36 -50 -6 -83 l-28 -23 -36 33 c-20 19 -36 38 -36 43 0 11 52 63 64 63 5
1 24 -14 42 -33z m-196 -46 c48 -13 106 -63 132 -113 32 -63 31 -187 -1 -187
-12 0 -281 271 -281 283 0 23 90 34 150 17z m100 -356 c0 -6 -9 -19 -20 -29
-20 -18 -23 -17 -174 131 -84 82 -154 153 -155 158 0 6 9 20 21 33 l22 24 153
-153 c84 -84 153 -158 153 -164z"/>
<path d="M298 391 c-30 -17 -48 -33 -48 -44 0 -16 5 -17 33 -12 60 14 111 65
75 77 -7 2 -34 -7 -60 -21z"/>
<path d="M466 228 c-20 -29 -21 -68 -1 -68 18 0 49 56 41 76 -8 20 -23 17 -40
-8z"/>
</g>
</svg>
